<?xml version="1.0" encoding="iso-8859-1"?>
<!-- Generator: Adobe Illustrator 19.0.0, SVG Export Plug-In . SVG Version: 6.00 Build 0)  -->
<svg version="1.1" id="Layer_1" xmlns="http://www.w3.org/2000/svg" xmlns:xlink="http://www.w3.org/1999/xlink" x="0px" y="0px"
	 viewBox="0 0 498.964 498.964" style="enable-background:new 0 0 498.964 498.964;" xml:space="preserve">
<path style="fill:#F7B208;" d="M144.682,209.364l95.2-152.8c11.2-17.6,5.6-40-12-51.2s-40.8-4-52,13.6l-166.4,270.4h136l-96,152.8
	c-11.2,17.6-5.6,40,12,51.2c6.4,4,12.8,5.6,20,5.6c12.8,0,24.8-8,32-19.2l166.4-270.4H144.682z"/>
<path style="fill:#EF9300;" d="M279.882,209.364h-89.6h-46.4l96-152.8c10.4-16,6.4-36.8-8.8-48.8c-3.2,2.4-6.4,7.2-8.8,11.2
	l-166.4,270.4h89.6h46.4l-96,152.8c-10.4,16-7.2,36.8,7.2,48.8c3.2-2.4,8-7.2,10.4-11.2L279.882,209.364z"/>
<circle style="fill:#82CC00;" cx="363.082" cy="371.764" r="126.4"/>
<path style="fill:#3EB500;" d="M363.082,245.364c69.6,0,126.4,56.8,126.4,126.4s-56.8,126.4-126.4,126.4"/>
<path style="fill:#5FBF02;" d="M273.482,282.164c49.6-49.6,129.6-49.6,178.4,0c49.6,49.6,49.6,129.6,0,178.4"/>
<path style="fill:#3EB500;" d="M374.282,323.764c-1.6-4.8-6.4-7.2-11.2-7.2c-4.8,0-9.6,3.2-11.2,7.2l-47.2,105.6
	c-2.4,6.4,0,13.6,6.4,16s13.6,0,16-6.4l36-80.8l11.2,25.6c-5.6,0.8-10.4,6.4-10.4,12.8s5.6,12.8,12,12.8h9.6l13.6,30.4
	c2.4,4.8,6.4,7.2,11.2,7.2c1.6,0,3.2-0.8,4.8-1.6c6.4-2.4,8.8-10.4,6.4-16L374.282,323.764z"/>
<path style="fill:#FFFFFF;" d="M374.282,314.164c-1.6-4.8-6.4-7.2-11.2-7.2c-4.8,0-9.6,3.2-11.2,7.2l-47.2,105.6
	c-2.4,6.4,0,13.6,6.4,16s13.6,0,16-6.4l36-80.8l11.2,25.6c-5.6,0.8-10.4,7.2-10.4,13.6s5.6,13.6,12,13.6h9.6l13.6,29.6
	c2.4,4.8,6.4,6.4,11.2,6.4c1.6,0,3.2-0.8,4.8-1.6c6.4-2.4,8.8-10.4,6.4-16L374.282,314.164z"/>
<g>
</g>
<g>
</g>
<g>
</g>
<g>
</g>
<g>
</g>
<g>
</g>
<g>
</g>
<g>
</g>
<g>
</g>
<g>
</g>
<g>
</g>
<g>
</g>
<g>
</g>
<g>
</g>
<g>
</g>
</svg>
