<?xml version="1.0" encoding="iso-8859-1"?>
<!-- Generator: Adobe Illustrator 19.0.0, SVG Export Plug-In . SVG Version: 6.00 Build 0)  -->
<svg version="1.1" id="Layer_1" xmlns="http://www.w3.org/2000/svg" xmlns:xlink="http://www.w3.org/1999/xlink" x="0px" y="0px"
	 viewBox="0 0 403.06 403.06" style="enable-background:new 0 0 403.06 403.06;" xml:space="preserve">
<g>
	<polygon style="fill:#FFCD00;" points="36.53,306.11 172.64,306.11 366.53,403.06 366.53,201.53 36.53,201.53 	"/>
	<polygon style="fill:#FFDA44;" points="172.64,96.95 36.53,96.95 36.53,201.53 366.53,201.53 366.53,0 	"/>
</g>
<g>
</g>
<g>
</g>
<g>
</g>
<g>
</g>
<g>
</g>
<g>
</g>
<g>
</g>
<g>
</g>
<g>
</g>
<g>
</g>
<g>
</g>
<g>
</g>
<g>
</g>
<g>
</g>
<g>
</g>
</svg>
